{
 "swagger": "2.0",
 "info": {
  "description": "This is a sample api documentation for Paychange",
  "version": "1.0.0",
  "title": "PayChange Api Documentation ",
  "termsOfService": "http://swagger.io/terms/",
  "contact": {
   "email": "soluwatobi@paychange.ng"
  },
  "license": {
   "name": "PayChange 2.0",
   "url": "http://www.apache.org/licenses/LICENSE-2.0.html"
  }
 },
 "host": "localhost:8000",
 "basePath": "/api",
 "schemes": [
  "http",
  "https"
 ],
 "paths": {
  "/product/{productId}": {
   "get": {
    "tags": [
     "product"
    ],
    "summary": "Find Product by ID",
    "description": "Returns a single Product",
    "operationId": "getProductById",
    "produces": [
     "application/json",
     "application/xml"
    ],
    "parameters": [
     {
      "name": "productId",
      "in": "path",
      "description": "product id",
      "required": true,
      "type": "integer",
      "format": "int64"
     }
    ],
    "responses": {
     "200": {
      "description": "successful operation",
      "schema": {
       "$ref": "#/definitions/product"
      }
     },
     "400": {
      "description": "Invalid ID supplied"
     },
     "404": {
      "description": "Product not available"
     }
    },
    "security": [
     {
      "api_key": []
     }
    ]
   }
  }
 },
 "securityDefinitions": {
  "api_key": {
   "type": "apiKey",
   "name": "api_key",
   "in": "header"
  }
 },
 "definitions": {
  "product": {
   "type": "object",
   "properties": {
    "id": {
     "type": "integer",
     "format": "int64"
    },
    "name": {
     "type": "string"
    },
    "price": {
     "type": "string"
    },
    "description": {
     "type": "string"
    },
    "created_at": {
     "type": "string",
     "format": "date-time"
    },
    "updated_at": {
     "type": "string",
     "format": "date-time"
    }
   },
   "xml": {
    "name": "product"
   }
  }
 },
 "externalDocs": {
  "description": "Find out more about Paychange",
  "url": "http://paychange.ng"
 }
}